{
  "$schema": "../../../node_modules/nx/schemas/project-schema.json",
  "sourceRoot": "libs/recruitment/data/src",
  "projectType": "library",
  "tags": [],
  "targets": {
    "lint": {
      "executor": "@nrwl/linter:eslint",
      "outputs": ["{options.outputFile}"],
      "options": {
        "lintFilePatterns": ["libs/recruitment/data/**/*.{ts,tsx,js,jsx}"]
      }
    },
    "test": {
      "executor": "@nrwl/jest:jest",
      "outputs": ["coverage/libs/recruitment/data"],
      "options": {
        "jestConfig": "libs/recruitment/data/jest.config.ts",
        "passWithNoTests": true
      }
    }
  }
}
